EESchema Schematic File Version 2
LIBS:power
LIBS:device
LIBS:switches
LIBS:relays
LIBS:motors
LIBS:transistors
LIBS:conn
LIBS:linear
LIBS:regul
LIBS:74xx
LIBS:cmos4000
LIBS:adc-dac
LIBS:memory
LIBS:xilinx
LIBS:microcontrollers
LIBS:dsp
LIBS:microchip
LIBS:analog_switches
LIBS:motorola
LIBS:texas
LIBS:intel
LIBS:audio
LIBS:interface
LIBS:digital-audio
LIBS:philips
LIBS:display
LIBS:cypress
LIBS:siliconi
LIBS:opto
LIBS:atmel
LIBS:contrib
LIBS:valves
EELAYER 25 0
EELAYER END
$Descr A 11000 8500
encoding utf-8
Sheet 1 1
Title "Chessboard Control Board"
Date "2017-10-28"
Rev "1"
Comp ""
Comment1 "BeagleBone Green Wireless based control board circuit to manage each NFC coil of the\\nchessboard."
Comment2 ""
Comment3 ""
Comment4 ""
$EndDescr
$EndSCHEMATC
