EESchema Schematic File Version 2
LIBS:KicadChessboard-rescue
LIBS:power
LIBS:device
LIBS:transistors
LIBS:conn
LIBS:linear
LIBS:regul
LIBS:74xx
LIBS:cmos4000
LIBS:adc-dac
LIBS:memory
LIBS:xilinx
LIBS:microcontrollers
LIBS:dsp
LIBS:microchip
LIBS:analog_switches
LIBS:motorola
LIBS:texas
LIBS:intel
LIBS:audio
LIBS:interface
LIBS:digital-audio
LIBS:philips
LIBS:display
LIBS:cypress
LIBS:siliconi
LIBS:opto
LIBS:atmel
LIBS:contrib
LIBS:valves
LIBS:DiodesInc
LIBS:Microchip
LIBS:myLib
LIBS:NXP
LIBS:KicadChessboard-cache
EELAYER 25 0
EELAYER END
$Descr USLetter 11000 8500
encoding utf-8
Sheet 1 20
Title "MFRC630"
Date "2016-12-23"
Rev "3.0"
Comp ""
Comment1 "Control circuit for a MFRC630 NFC controller. It will control 16 NFC coils."
Comment2 ""
Comment3 ""
Comment4 ""
$EndDescr
$Comp
L MFRC630 U1
U 1 1 585DF3EF
P 5450 3800
F 0 "U1" H 5450 4850 60  0000 C CNN
F 1 "MFRC630" H 5450 4750 60  0000 C CNN
F 2 "NXP:32_HVQFN32_Handsolder" H 5450 4850 60  0001 C CNN
F 3 "http://www.nxp.com/documents/data_sheet/MFRC630.pdf" H 5450 2900 60  0001 C TNN
	1    5450 3800
	1    0    0    -1  
$EndComp
$Sheet
S 1200 6600 1150 1100
U 585E045D
F0 "Coils" 60
F1 "Coils.sch" 60
$EndSheet
Text GLabel 9100 3450 2    60   Output ~ 0
TX1/RX1
Text GLabel 9050 3900 2    60   Input ~ 0
TVSS
Text GLabel 9100 4350 2    60   Output ~ 0
TX2/RX2
$Comp
L GND #PWR01
U 1 1 585EEF9C
P 7050 5900
F 0 "#PWR01" H 7050 5650 50  0001 C CNN
F 1 "GND" H 7050 5750 50  0000 C CNN
F 2 "" H 7050 5900 50  0000 C CNN
F 3 "" H 7050 5900 50  0000 C CNN
	1    7050 5900
	1    0    0    -1  
$EndComp
$Comp
L C_Small C9
U 1 1 585EF4CA
P 6600 5500
F 0 "C9" H 6400 5550 50  0000 L CNN
F 1 "15pF" H 6350 5450 50  0000 L CNN
F 2 "Capacitors_SMD:C_0603" H 6600 5500 50  0001 C CNN
F 3 "" H 6600 5500 50  0000 C CNN
	1    6600 5500
	1    0    0    -1  
$EndComp
$Comp
L C_Small C11
U 1 1 585EF51D
P 7500 5450
F 0 "C11" H 7600 5500 50  0000 L CNN
F 1 "15pF" H 7600 5400 50  0000 L CNN
F 2 "Capacitors_SMD:C_0603" H 7500 5450 50  0001 C CNN
F 3 "" H 7500 5450 50  0000 C CNN
	1    7500 5450
	1    0    0    -1  
$EndComp
$Comp
L L_Small L1
U 1 1 585F072C
P 6550 1650
F 0 "L1" H 6580 1690 50  0000 L CNN
F 1 "22nH" H 6580 1610 50  0000 L CNN
F 2 "Capacitors_SMD:C_0805" H 6550 1650 50  0001 C CNN
F 3 "" H 6550 1650 50  0000 C CNN
	1    6550 1650
	1    0    0    -1  
$EndComp
$Comp
L C_Small C6
U 1 1 585F079D
P 6100 1450
F 0 "C6" V 6000 1400 50  0000 L CNN
F 1 "100nF" V 6200 1350 50  0000 L CNN
F 2 "Capacitors_SMD:C_0603" H 6100 1450 50  0001 C CNN
F 3 "" H 6100 1450 50  0000 C CNN
	1    6100 1450
	0    1    1    0   
$EndComp
$Comp
L C_Small C7
U 1 1 585F07EC
P 6100 1800
F 0 "C7" V 6000 1750 50  0000 L CNN
F 1 "1uF" V 6200 1700 50  0000 L CNN
F 2 "Capacitors_SMD:C_0603" H 6100 1800 50  0001 C CNN
F 3 "" H 6100 1800 50  0000 C CNN
	1    6100 1800
	0    1    1    0   
$EndComp
$Comp
L C_Small C8
U 1 1 585F0839
P 6100 2100
F 0 "C8" V 6000 2050 50  0000 L CNN
F 1 "100nF" V 6200 2000 50  0000 L CNN
F 2 "Capacitors_SMD:C_0603" H 6100 2100 50  0001 C CNN
F 3 "" H 6100 2100 50  0000 C CNN
	1    6100 2100
	0    1    1    0   
$EndComp
$Comp
L CP1_Small C5
U 1 1 585F0898
P 6100 1150
F 0 "C5" V 6000 1100 50  0000 L CNN
F 1 "100uF" V 6200 1050 50  0000 L CNN
F 2 "Capacitors_SMD:C_0603" H 6100 1150 50  0001 C CNN
F 3 "" H 6100 1150 50  0000 C CNN
	1    6100 1150
	0    1    1    0   
$EndComp
$Comp
L GND #PWR02
U 1 1 585F109C
P 5600 1400
F 0 "#PWR02" H 5600 1150 50  0001 C CNN
F 1 "GND" H 5600 1250 50  0000 C CNN
F 2 "" H 5600 1400 50  0000 C CNN
F 3 "" H 5600 1400 50  0000 C CNN
	1    5600 1400
	1    0    0    -1  
$EndComp
$Comp
L GND #PWR03
U 1 1 585F10C2
P 5600 2050
F 0 "#PWR03" H 5600 1800 50  0001 C CNN
F 1 "GND" H 5600 1900 50  0000 C CNN
F 2 "" H 5600 2050 50  0000 C CNN
F 3 "" H 5600 2050 50  0000 C CNN
	1    5600 2050
	1    0    0    -1  
$EndComp
$Comp
L C_Small C10
U 1 1 585F1288
P 7150 2700
F 0 "C10" V 6950 2650 50  0000 L CNN
F 1 "100nF" V 7050 2600 50  0000 L CNN
F 2 "Capacitors_SMD:C_0603" H 7150 2700 50  0001 C CNN
F 3 "" H 7150 2700 50  0000 C CNN
	1    7150 2700
	0    1    1    0   
$EndComp
$Comp
L GND #PWR04
U 1 1 585F134E
P 7400 2800
F 0 "#PWR04" H 7400 2550 50  0001 C CNN
F 1 "GND" H 7400 2650 50  0000 C CNN
F 2 "" H 7400 2800 50  0000 C CNN
F 3 "" H 7400 2800 50  0000 C CNN
	1    7400 2800
	1    0    0    -1  
$EndComp
Text HLabel 7200 2100 2    60   Output ~ 0
VMID
Text HLabel 8350 2650 2    60   Input ~ 0
VMID
$Comp
L R_Small R5
U 1 1 585F18EE
P 8100 2650
F 0 "R5" V 7900 2600 50  0000 L CNN
F 1 "1k" V 8000 2600 50  0000 L CNN
F 2 "Resistors_SMD:R_0603" H 8100 2650 50  0001 C CNN
F 3 "" H 8100 2650 50  0000 C CNN
	1    8100 2650
	0    1    1    0   
$EndComp
$Comp
L C_Small C14
U 1 1 585F1CDC
P 8300 3050
F 0 "C14" V 8100 3000 50  0000 L CNN
F 1 "1nF" V 8200 3000 50  0000 L CNN
F 2 "Capacitors_SMD:C_0603" H 8300 3050 50  0001 C CNN
F 3 "" H 8300 3050 50  0000 C CNN
	1    8300 3050
	0    1    1    0   
$EndComp
$Comp
L L_Small L2
U 1 1 585F1FEA
P 7200 3450
F 0 "L2" V 7400 3450 50  0000 L CNN
F 1 "1uH" V 7300 3400 50  0000 L CNN
F 2 "Capacitors_SMD:C_0603" H 7200 3450 50  0001 C CNN
F 3 "" H 7200 3450 50  0000 C CNN
	1    7200 3450
	0    -1   -1   0   
$EndComp
$Comp
L L_Small L3
U 1 1 585F248C
P 7200 4350
F 0 "L3" V 7400 4350 50  0000 L CNN
F 1 "1uH" V 7300 4300 50  0000 L CNN
F 2 "Capacitors_SMD:C_0603" H 7200 4350 50  0001 C CNN
F 3 "" H 7200 4350 50  0000 C CNN
	1    7200 4350
	0    -1   -1   0   
$EndComp
$Comp
L C_Small C15
U 1 1 585F3660
P 8300 4800
F 0 "C15" V 8100 4750 50  0000 L CNN
F 1 "1nF" V 8200 4750 50  0000 L CNN
F 2 "Capacitors_SMD:C_0603" H 8300 4800 50  0001 C CNN
F 3 "" H 8300 4800 50  0000 C CNN
	1    8300 4800
	0    1    1    0   
$EndComp
Text HLabel 8350 5250 2    60   Input ~ 0
VMID
$Comp
L R_Small R6
U 1 1 585F41F2
P 8100 5250
F 0 "R6" V 8200 5200 50  0000 L CNN
F 1 "1k" V 8300 5200 50  0000 L CNN
F 2 "Resistors_SMD:R_0603" H 8100 5250 50  0001 C CNN
F 3 "" H 8100 5250 50  0000 C CNN
	1    8100 5250
	0    1    1    0   
$EndComp
Text Notes 7750 3300 0    60   ~ 0
EMC Filter
Text Notes 8350 2600 0    60   ~ 0
(1.8V)
Text Notes 8350 5200 0    60   ~ 0
(1.8V)
Text Notes 7200 2050 0    60   ~ 0
(1.8V)
$Comp
L GND #PWR05
U 1 1 585F4EE0
P 4350 5850
F 0 "#PWR05" H 4350 5600 50  0001 C CNN
F 1 "GND" H 4350 5700 50  0000 C CNN
F 2 "" H 4350 5850 50  0000 C CNN
F 3 "" H 4350 5850 50  0000 C CNN
	1    4350 5850
	1    0    0    -1  
$EndComp
$Comp
L C_Small C4
U 1 1 585F5028
P 3950 5600
F 0 "C4" H 3960 5670 50  0000 L CNN
F 1 "1uF" H 3960 5520 50  0000 L CNN
F 2 "Capacitors_SMD:C_0603" H 3950 5600 50  0001 C CNN
F 3 "" H 3950 5600 50  0000 C CNN
	1    3950 5600
	1    0    0    -1  
$EndComp
$Comp
L C_Small C3
U 1 1 585F50A9
P 3600 5600
F 0 "C3" H 3610 5670 50  0000 L CNN
F 1 "1uF" H 3610 5520 50  0000 L CNN
F 2 "Capacitors_SMD:C_0603" H 3600 5600 50  0001 C CNN
F 3 "" H 3600 5600 50  0000 C CNN
	1    3600 5600
	1    0    0    -1  
$EndComp
$Comp
L C_Small C2
U 1 1 585F51D5
P 3150 5600
F 0 "C2" H 3160 5670 50  0000 L CNN
F 1 "1nF" H 3160 5520 50  0000 L CNN
F 2 "Capacitors_SMD:C_0603" H 3150 5600 50  0001 C CNN
F 3 "" H 3150 5600 50  0000 C CNN
	1    3150 5600
	1    0    0    -1  
$EndComp
$Comp
L C_Small C1
U 1 1 585F521A
P 2650 5600
F 0 "C1" H 2660 5670 50  0000 L CNN
F 1 "100nF" H 2660 5520 50  0000 L CNN
F 2 "Capacitors_SMD:C_0603" H 2650 5600 50  0001 C CNN
F 3 "" H 2650 5600 50  0000 C CNN
	1    2650 5600
	1    0    0    -1  
$EndComp
$Comp
L GND #PWR06
U 1 1 585F566A
P 3800 5850
F 0 "#PWR06" H 3800 5600 50  0001 C CNN
F 1 "GND" H 3800 5700 50  0000 C CNN
F 2 "" H 3800 5850 50  0000 C CNN
F 3 "" H 3800 5850 50  0000 C CNN
	1    3800 5850
	1    0    0    -1  
$EndComp
$Comp
L GND #PWR07
U 1 1 585F56F2
P 3150 5850
F 0 "#PWR07" H 3150 5600 50  0001 C CNN
F 1 "GND" H 3150 5700 50  0000 C CNN
F 2 "" H 3150 5850 50  0000 C CNN
F 3 "" H 3150 5850 50  0000 C CNN
	1    3150 5850
	1    0    0    -1  
$EndComp
$Comp
L GND #PWR08
U 1 1 585F5736
P 2650 5850
F 0 "#PWR08" H 2650 5600 50  0001 C CNN
F 1 "GND" H 2650 5700 50  0000 C CNN
F 2 "" H 2650 5850 50  0000 C CNN
F 3 "" H 2650 5850 50  0000 C CNN
	1    2650 5850
	1    0    0    -1  
$EndComp
$Comp
L R_Small R2
U 1 1 585F7DF6
P 2800 3700
F 0 "R2" V 2700 3650 50  0000 L CNN
F 1 "JMPR_1-" V 2750 3550 50  0000 L CNN
F 2 "Resistors_SMD:R_0603" H 2800 3700 50  0001 C CNN
F 3 "" H 2800 3700 50  0000 C CNN
	1    2800 3700
	0    1    1    0   
$EndComp
$Comp
L R_Small R3
U 1 1 585F7E81
P 2800 3900
F 0 "R3" V 2700 3850 50  0000 L CNN
F 1 "JMPR_2+" V 2750 3750 50  0000 L CNN
F 2 "Resistors_SMD:R_0603" H 2800 3900 50  0001 C CNN
F 3 "" H 2800 3900 50  0000 C CNN
	1    2800 3900
	0    1    1    0   
$EndComp
$Comp
L R_Small R1
U 1 1 585F8056
P 2800 3500
F 0 "R1" V 2700 3450 50  0000 L CNN
F 1 "JMPR_1+" V 2750 3350 50  0000 L CNN
F 2 "Resistors_SMD:R_0603" H 2800 3500 50  0001 C CNN
F 3 "" H 2800 3500 50  0000 C CNN
	1    2800 3500
	0    1    1    0   
$EndComp
$Comp
L R_Small R4
U 1 1 585F80AF
P 2800 4100
F 0 "R4" V 2700 4050 50  0000 L CNN
F 1 "JMPR_2-" V 2750 3950 50  0000 L CNN
F 2 "Resistors_SMD:R_0603" H 2800 4100 50  0001 C CNN
F 3 "" H 2800 4100 50  0000 C CNN
	1    2800 4100
	0    1    1    0   
$EndComp
Text Notes 3050 4300 2    60   ~ 0
I2C ADDR SEL
$Sheet
S 3950 6600 1150 1100
U 5860542D
F0 "LED" 60
F1 "LED.sch" 60
$EndSheet
$Comp
L POT-RESCUE-KicadChessboard R7
U 1 1 58606F26
P 8900 3050
F 0 "R7" H 8900 2970 50  0000 C CNN
F 1 "7k-15k" H 8900 2900 50  0000 C CNN
F 2 "libraries:Panasonic_EVM2_2mm" H 8900 3050 50  0001 C CNN
F 3 "" H 8900 3050 50  0000 C CNN
	1    8900 3050
	1    0    0    1   
$EndComp
$Comp
L POT-RESCUE-KicadChessboard R8
U 1 1 5860A731
P 8900 4800
F 0 "R8" H 8900 4720 50  0000 C CNN
F 1 "7k-15k" H 8900 4650 50  0000 C CNN
F 2 "libraries:Panasonic_EVM2_2mm" H 8900 4800 50  0001 C CNN
F 3 "" H 8900 4800 50  0000 C CNN
	1    8900 4800
	1    0    0    -1  
$EndComp
Text Notes 6450 3050 0    60   ~ 0
1.2V<=Vin<=1.8V
Text Notes 6450 4800 0    60   ~ 0
1.2V<=Vin<=1.8V
Text Notes 8250 3800 0    60   ~ 0
<--in parallel with serial matching caps...\n     make small
Text Notes 8250 4300 0    60   ~ 0
<--in parallel with serial matching caps...\n     make small
Text Notes 8750 2850 0    60   ~ 0
Vin adjust
Text Notes 8700 5050 0    60   ~ 0
Vin adjust
$Comp
L CTRIM C12
U 1 1 5860CFEF
P 7950 3650
F 0 "C12" H 7750 3700 50  0000 C CNN
F 1 "22pF??" H 7750 3600 50  0000 C CNN
F 2 "libraries:Murata_TZY2_3.2x2.5" H 7950 3650 50  0001 C CNN
F 3 "" H 7950 3650 50  0000 C CNN
	1    7950 3650
	1    0    0    -1  
$EndComp
$Comp
L CTRIM C13
U 1 1 5860D8B9
P 7950 4150
F 0 "C13" H 7750 4200 50  0000 C CNN
F 1 "22pF??" H 7750 4100 50  0000 C CNN
F 2 "libraries:Murata_TZY2_3.2x2.5" H 7950 4150 50  0001 C CNN
F 3 "" H 7950 4150 50  0000 C CNN
	1    7950 4150
	1    0    0    -1  
$EndComp
Text HLabel 6550 900  1    60   Input ~ 0
TVDD
Text GLabel 3700 2900 1    60   Input ~ 0
+3.3V
Text GLabel 2350 4900 0    60   Input ~ 0
+3.3V
$Comp
L GNDREF #PWR09
U 1 1 58627148
P 6700 4050
F 0 "#PWR09" H 6700 3800 50  0001 C CNN
F 1 "GNDREF" H 6700 3900 50  0000 C CNN
F 2 "" H 6700 4050 50  0000 C CNN
F 3 "" H 6700 4050 50  0000 C CNN
	1    6700 4050
	1    0    0    -1  
$EndComp
$Sheet
S 2600 6600 1150 1100
U 5862D174
F0 "MOSFETControl" 60
F1 "MOSFETControl.sch" 60
$EndSheet
Text HLabel 1800 4700 0    60   Input ~ 0
SDA_1
Text HLabel 1800 4600 0    60   Input ~ 0
SCL_1
Wire Wire Line
	6600 5300 6600 5400
Wire Wire Line
	7200 5300 7500 5300
Wire Wire Line
	6600 5600 6600 5750
Wire Wire Line
	6600 5750 7500 5750
Wire Wire Line
	7500 5750 7500 5550
Connection ~ 7500 5300
Wire Wire Line
	7500 5000 7500 5350
Connection ~ 6600 5300
Wire Wire Line
	7050 5900 7050 5750
Connection ~ 7050 5750
Wire Wire Line
	6000 1150 5900 1150
Wire Wire Line
	5900 1150 5900 1450
Wire Wire Line
	5900 1450 6000 1450
Wire Wire Line
	6000 1800 5900 1800
Wire Wire Line
	5900 1800 5900 2100
Wire Wire Line
	5900 2100 6000 2100
Wire Wire Line
	6550 900  6550 1550
Wire Wire Line
	6550 1750 6550 2500
Wire Wire Line
	6550 2500 6450 2500
Wire Wire Line
	6200 1150 6550 1150
Connection ~ 6550 1150
Wire Wire Line
	6200 1450 6550 1450
Connection ~ 6550 1450
Wire Wire Line
	6200 1800 6550 1800
Connection ~ 6550 1800
Wire Wire Line
	6200 2100 6550 2100
Connection ~ 6550 2100
Wire Wire Line
	5600 1300 5600 1400
Wire Wire Line
	5600 1300 5900 1300
Connection ~ 5900 1300
Wire Wire Line
	5900 1950 5600 1950
Wire Wire Line
	5600 1950 5600 2050
Connection ~ 5900 1950
Wire Wire Line
	7250 2700 7400 2700
Wire Wire Line
	7400 2700 7400 2800
Wire Wire Line
	6450 2700 7050 2700
Wire Wire Line
	7200 2100 6900 2100
Wire Wire Line
	6900 2100 6900 2700
Connection ~ 6900 2700
Wire Wire Line
	8000 2650 7800 2650
Wire Wire Line
	7800 2650 7800 3050
Wire Wire Line
	6450 3050 8200 3050
Wire Wire Line
	8200 2650 8350 2650
Connection ~ 7800 3050
Wire Wire Line
	6450 3450 7100 3450
Wire Wire Line
	7300 3450 9100 3450
Wire Wire Line
	7300 4350 9100 4350
Wire Wire Line
	6450 3900 9050 3900
Wire Wire Line
	7100 4350 6450 4350
Wire Wire Line
	6450 4800 8200 4800
Wire Wire Line
	7500 5000 6450 5000
Wire Wire Line
	6450 5300 6900 5300
Connection ~ 6700 3900
Wire Wire Line
	8000 5250 7800 5250
Wire Wire Line
	7800 5250 7800 4800
Connection ~ 7800 4800
Wire Wire Line
	8200 5250 8350 5250
Wire Notes Line
	6950 3200 8400 3200
Wire Notes Line
	8400 3200 8400 4500
Wire Notes Line
	8400 4500 6950 4500
Wire Notes Line
	6950 4500 6950 3200
Wire Wire Line
	4350 5300 4450 5300
Wire Wire Line
	3950 5200 4450 5200
Wire Wire Line
	3950 5200 3950 5500
Wire Wire Line
	3600 5100 4450 5100
Wire Wire Line
	3600 5100 3600 5500
Wire Wire Line
	2650 5700 2650 5850
Wire Wire Line
	3150 5700 3150 5850
Wire Wire Line
	3600 5700 3600 5800
Wire Wire Line
	3600 5800 3950 5800
Wire Wire Line
	3800 5800 3800 5850
Wire Wire Line
	3950 5800 3950 5700
Connection ~ 3800 5800
Connection ~ 3150 4900
Wire Wire Line
	2500 4500 4450 4500
Wire Wire Line
	4350 3500 4350 5850
Connection ~ 4350 4500
Connection ~ 4350 5300
Wire Wire Line
	4450 3700 4250 3700
Wire Wire Line
	4250 3700 4250 4600
Connection ~ 4250 4200
Wire Wire Line
	4450 3900 4150 3900
Wire Wire Line
	4150 3900 4150 4700
Connection ~ 4150 4300
Wire Wire Line
	3700 3400 4450 3400
Wire Wire Line
	4450 3500 4350 3500
Wire Wire Line
	2900 3500 3000 3500
Wire Wire Line
	3000 3500 3000 3700
Wire Wire Line
	3000 3700 2900 3700
Wire Wire Line
	2900 3900 3000 3900
Wire Wire Line
	3000 3800 3000 4100
Wire Wire Line
	3000 4100 2900 4100
Wire Wire Line
	4450 3800 3000 3800
Connection ~ 3000 3900
Wire Wire Line
	4450 3600 3000 3600
Connection ~ 3000 3600
Wire Wire Line
	2600 3900 2700 3900
Wire Wire Line
	2600 3300 2600 3900
Wire Wire Line
	2600 3500 2700 3500
Wire Wire Line
	2700 3700 2500 3700
Wire Wire Line
	2500 3700 2500 4500
Wire Wire Line
	2500 4100 2700 4100
Connection ~ 2500 4100
Connection ~ 2600 3500
Connection ~ 3700 3300
Wire Notes Line
	2400 3250 3100 3250
Wire Notes Line
	3100 3250 3100 4300
Wire Notes Line
	3100 4300 2400 4300
Wire Notes Line
	2400 4300 2400 3250
Connection ~ 8900 3450
Connection ~ 8900 4350
Wire Wire Line
	8750 4800 8400 4800
Wire Wire Line
	8900 4350 8900 4650
Wire Wire Line
	3700 3300 2600 3300
Wire Wire Line
	8750 3050 8400 3050
Wire Wire Line
	8900 3200 8900 3450
Wire Wire Line
	7950 4300 7950 4350
Connection ~ 7950 4350
Wire Wire Line
	7950 3800 7950 4000
Connection ~ 7950 3900
Wire Wire Line
	7950 3500 7950 3450
Connection ~ 7950 3450
Wire Wire Line
	2350 4900 4450 4900
Wire Wire Line
	6700 3900 6700 4050
Wire Wire Line
	4150 4700 1800 4700
Wire Wire Line
	4250 4600 1800 4600
Wire Wire Line
	3700 2900 3700 3400
Wire Wire Line
	4250 4200 4450 4200
Wire Wire Line
	4450 4300 4150 4300
Text Notes 6650 900  0    60   ~ 0
(+5V)
Text Notes 1350 4500 0    60   ~ 0
(+3.3V logic)
$Comp
L CONN_01X10 P1
U 1 1 58638886
P 1650 1650
F 0 "P1" H 1650 2200 50  0000 C CNN
F 1 "CONN_01X10" V 1750 1650 50  0000 C CNN
F 2 "Pin_Headers:Pin_Header_Straight_1x10" H 1650 1650 50  0001 C CNN
F 3 "" H 1650 1650 50  0000 C CNN
	1    1650 1650
	-1   0    0    1   
$EndComp
Text GLabel 2100 1200 2    60   Output ~ 0
SDA_2
Text GLabel 2100 1300 2    60   Output ~ 0
SCL_2
Text GLabel 2100 1400 2    60   Output ~ 0
SDA_1
Text GLabel 2100 1500 2    60   Output ~ 0
SCL_1
Text GLabel 2100 1600 2    60   Output ~ 0
+5V
Text GLabel 2100 1700 2    60   Output ~ 0
+3.3V
Text GLabel 2100 1800 2    60   Output ~ 0
+1.8V
Text GLabel 2100 1900 2    60   Output ~ 0
GND
Text GLabel 2100 2100 2    60   Output ~ 0
GNDREF
Text HLabel 2100 2000 2    60   Output ~ 0
TVDD
Wire Wire Line
	2100 1200 1850 1200
Wire Wire Line
	1850 1300 2100 1300
Wire Wire Line
	1850 1400 2100 1400
Wire Wire Line
	1850 1500 2100 1500
Wire Wire Line
	1850 1600 2100 1600
Wire Wire Line
	1850 1700 2100 1700
Wire Wire Line
	2100 1800 1850 1800
Wire Wire Line
	1850 1900 2100 1900
Wire Wire Line
	2100 2000 1850 2000
Wire Wire Line
	1850 2100 2100 2100
Text Notes 2500 2000 0    60   ~ 0
(+5V)
Text Notes 2800 2150 2    60   ~ 0
(TVSS)
Text Notes 3050 1500 2    60   ~ 0
(+3.3V logic)
Text Notes 3050 1300 2    60   ~ 0
(+1.8V logic)
Connection ~ 2650 4900
Wire Wire Line
	3150 4900 3150 5500
Wire Wire Line
	2650 4900 2650 5500
Wire Wire Line
	4450 4800 4200 4800
Wire Wire Line
	4200 4800 4200 4900
Connection ~ 4200 4900
$Comp
L Murata_XRCGB Y1
U 1 1 5869A856
P 7050 5300
F 0 "Y1" H 7050 5450 50  0000 C CNN
F 1 "27.12 MHz" H 7050 5150 50  0000 C CNN
F 2 "libraries:Murata_XRCGB_F_P_M_L__XRCPB_F_P_M_L" H 7050 5300 50  0001 C CNN
F 3 "" H 7050 5300 50  0000 C CNN
	1    7050 5300
	1    0    0    -1  
$EndComp
$EndSCHEMATC
