EESchema Schematic File Version 2
LIBS:KicadChessboard-rescue
LIBS:power
LIBS:device
LIBS:transistors
LIBS:conn
LIBS:linear
LIBS:regul
LIBS:74xx
LIBS:cmos4000
LIBS:adc-dac
LIBS:memory
LIBS:xilinx
LIBS:microcontrollers
LIBS:dsp
LIBS:microchip
LIBS:analog_switches
LIBS:motorola
LIBS:texas
LIBS:intel
LIBS:audio
LIBS:interface
LIBS:digital-audio
LIBS:philips
LIBS:display
LIBS:cypress
LIBS:siliconi
LIBS:opto
LIBS:atmel
LIBS:contrib
LIBS:valves
LIBS:DiodesInc
LIBS:Microchip
LIBS:myLib
LIBS:NXP
LIBS:KicadChessboard-cache
EELAYER 25 0
EELAYER END
$Descr A 11000 8500
encoding utf-8
Sheet 19 20
Title "Status LED circuit."
Date "2016-12-27"
Rev "3.0"
Comp ""
Comment1 "Supply circuit for the LED's."
Comment2 ""
Comment3 ""
Comment4 ""
$EndDescr
$Comp
L Led_Small D2
U 1 1 5860E537
P 5950 2750
F 0 "D2" V 6000 2850 50  0000 L CNN
F 1 "Cool White" H 5775 2650 50  0000 L CNN
F 2 "LEDs:LED_0805" V 5950 2750 50  0001 C CNN
F 3 "" V 5950 2750 50  0000 C CNN
	1    5950 2750
	0    -1   -1   0   
$EndComp
$Comp
L Led_Small D6
U 1 1 5860E5F1
P 6850 2750
F 0 "D6" V 6900 2850 50  0000 L CNN
F 1 "Cool White" H 6675 2650 50  0000 L CNN
F 2 "LEDs:LED_0805" V 6850 2750 50  0001 C CNN
F 3 "" V 6850 2750 50  0000 C CNN
	1    6850 2750
	0    -1   -1   0   
$EndComp
$Comp
L Led_Small D10
U 1 1 5860E617
P 7750 2750
F 0 "D10" V 7800 2850 50  0000 L CNN
F 1 "Cool White" H 7575 2650 50  0000 L CNN
F 2 "LEDs:LED_0805" V 7750 2750 50  0001 C CNN
F 3 "" V 7750 2750 50  0000 C CNN
	1    7750 2750
	0    -1   -1   0   
$EndComp
$Comp
L Led_Small D14
U 1 1 5860E652
P 8650 2750
F 0 "D14" V 8700 2850 50  0000 L CNN
F 1 "Cool White" H 8475 2650 50  0000 L CNN
F 2 "LEDs:LED_0805" V 8650 2750 50  0001 C CNN
F 3 "" V 8650 2750 50  0000 C CNN
	1    8650 2750
	0    -1   -1   0   
$EndComp
Text GLabel 5100 1200 1    60   Input ~ 0
+5V
$Comp
L Led_Small D1
U 1 1 586217F5
P 5950 1750
F 0 "D1" V 6000 1850 50  0000 L CNN
F 1 "Cool White" H 5775 1650 50  0000 L CNN
F 2 "LEDs:LED_0805" V 5950 1750 50  0001 C CNN
F 3 "" V 5950 1750 50  0000 C CNN
	1    5950 1750
	0    -1   -1   0   
$EndComp
$Comp
L Led_Small D5
U 1 1 586217FB
P 6850 1750
F 0 "D5" V 6900 1850 50  0000 L CNN
F 1 "Cool White" H 6675 1650 50  0000 L CNN
F 2 "LEDs:LED_0805" V 6850 1750 50  0001 C CNN
F 3 "" V 6850 1750 50  0000 C CNN
	1    6850 1750
	0    -1   -1   0   
$EndComp
$Comp
L Led_Small D9
U 1 1 58621801
P 7750 1750
F 0 "D9" V 7800 1850 50  0000 L CNN
F 1 "Cool White" H 7575 1650 50  0000 L CNN
F 2 "LEDs:LED_0805" V 7750 1750 50  0001 C CNN
F 3 "" V 7750 1750 50  0000 C CNN
	1    7750 1750
	0    -1   -1   0   
$EndComp
$Comp
L Led_Small D13
U 1 1 58621807
P 8650 1750
F 0 "D13" V 8700 1850 50  0000 L CNN
F 1 "Cool White" H 8475 1650 50  0000 L CNN
F 2 "LEDs:LED_0805" V 8650 1750 50  0001 C CNN
F 3 "" V 8650 1750 50  0000 C CNN
	1    8650 1750
	0    -1   -1   0   
$EndComp
$Comp
L Led_Small D3
U 1 1 58621985
P 5950 3750
F 0 "D3" V 6000 3850 50  0000 L CNN
F 1 "Cool White" H 5775 3650 50  0000 L CNN
F 2 "LEDs:LED_0805" V 5950 3750 50  0001 C CNN
F 3 "" V 5950 3750 50  0000 C CNN
	1    5950 3750
	0    -1   -1   0   
$EndComp
$Comp
L Led_Small D7
U 1 1 5862198B
P 6850 3750
F 0 "D7" V 6900 3850 50  0000 L CNN
F 1 "Cool White" H 6675 3650 50  0000 L CNN
F 2 "LEDs:LED_0805" V 6850 3750 50  0001 C CNN
F 3 "" V 6850 3750 50  0000 C CNN
	1    6850 3750
	0    -1   -1   0   
$EndComp
$Comp
L Led_Small D11
U 1 1 58621991
P 7750 3750
F 0 "D11" V 7800 3850 50  0000 L CNN
F 1 "Cool White" H 7575 3650 50  0000 L CNN
F 2 "LEDs:LED_0805" V 7750 3750 50  0001 C CNN
F 3 "" V 7750 3750 50  0000 C CNN
	1    7750 3750
	0    -1   -1   0   
$EndComp
$Comp
L Led_Small D15
U 1 1 58621997
P 8650 3750
F 0 "D15" V 8700 3850 50  0000 L CNN
F 1 "Cool White" H 8475 3650 50  0000 L CNN
F 2 "LEDs:LED_0805" V 8650 3750 50  0001 C CNN
F 3 "" V 8650 3750 50  0000 C CNN
	1    8650 3750
	0    -1   -1   0   
$EndComp
$Comp
L Led_Small D4
U 1 1 58621DED
P 5950 4750
F 0 "D4" V 6000 4850 50  0000 L CNN
F 1 "Cool White" H 5775 4650 50  0000 L CNN
F 2 "LEDs:LED_0805" V 5950 4750 50  0001 C CNN
F 3 "" V 5950 4750 50  0000 C CNN
	1    5950 4750
	0    -1   -1   0   
$EndComp
$Comp
L Led_Small D8
U 1 1 58621DF3
P 6850 4750
F 0 "D8" V 6900 4850 50  0000 L CNN
F 1 "Cool White" H 6675 4650 50  0000 L CNN
F 2 "LEDs:LED_0805" V 6850 4750 50  0001 C CNN
F 3 "" V 6850 4750 50  0000 C CNN
	1    6850 4750
	0    -1   -1   0   
$EndComp
$Comp
L Led_Small D12
U 1 1 58621DF9
P 7750 4750
F 0 "D12" V 7800 4850 50  0000 L CNN
F 1 "Cool White" H 7575 4650 50  0000 L CNN
F 2 "LEDs:LED_0805" V 7750 4750 50  0001 C CNN
F 3 "" V 7750 4750 50  0000 C CNN
	1    7750 4750
	0    -1   -1   0   
$EndComp
$Comp
L Led_Small D16
U 1 1 58621DFF
P 8650 4750
F 0 "D16" V 8700 4850 50  0000 L CNN
F 1 "Cool White" H 8475 4650 50  0000 L CNN
F 2 "LEDs:LED_0805" V 8650 4750 50  0001 C CNN
F 3 "" V 8650 4750 50  0000 C CNN
	1    8650 4750
	0    -1   -1   0   
$EndComp
$Comp
L R_Small R77
U 1 1 586221AE
P 5950 2050
F 0 "R77" H 5980 2070 50  0000 L CNN
F 1 "75ohms" H 5980 2010 50  0000 L CNN
F 2 "Resistors_SMD:R_0603" H 5950 2050 50  0001 C CNN
F 3 "" H 5950 2050 50  0000 C CNN
	1    5950 2050
	1    0    0    -1  
$EndComp
$Comp
L R_Small R81
U 1 1 5862223D
P 6850 2050
F 0 "R81" H 6880 2070 50  0000 L CNN
F 1 "75ohms" H 6880 2010 50  0000 L CNN
F 2 "Resistors_SMD:R_0603" H 6850 2050 50  0001 C CNN
F 3 "" H 6850 2050 50  0000 C CNN
	1    6850 2050
	1    0    0    -1  
$EndComp
$Comp
L R_Small R85
U 1 1 586222BE
P 7750 2050
F 0 "R85" H 7780 2070 50  0000 L CNN
F 1 "75ohms" H 7780 2010 50  0000 L CNN
F 2 "Resistors_SMD:R_0603" H 7750 2050 50  0001 C CNN
F 3 "" H 7750 2050 50  0000 C CNN
	1    7750 2050
	1    0    0    -1  
$EndComp
$Comp
L R_Small R89
U 1 1 5862233B
P 8650 2050
F 0 "R89" H 8680 2070 50  0000 L CNN
F 1 "75ohms" H 8680 2010 50  0000 L CNN
F 2 "Resistors_SMD:R_0603" H 8650 2050 50  0001 C CNN
F 3 "" H 8650 2050 50  0000 C CNN
	1    8650 2050
	1    0    0    -1  
$EndComp
$Comp
L R_Small R78
U 1 1 5862262D
P 5950 3050
F 0 "R78" H 5980 3070 50  0000 L CNN
F 1 "75ohms" H 5980 3010 50  0000 L CNN
F 2 "Resistors_SMD:R_0603" H 5950 3050 50  0001 C CNN
F 3 "" H 5950 3050 50  0000 C CNN
	1    5950 3050
	1    0    0    -1  
$EndComp
$Comp
L R_Small R82
U 1 1 58622633
P 6850 3050
F 0 "R82" H 6880 3070 50  0000 L CNN
F 1 "75ohms" H 6880 3010 50  0000 L CNN
F 2 "Resistors_SMD:R_0603" H 6850 3050 50  0001 C CNN
F 3 "" H 6850 3050 50  0000 C CNN
	1    6850 3050
	1    0    0    -1  
$EndComp
$Comp
L R_Small R86
U 1 1 58622639
P 7750 3050
F 0 "R86" H 7780 3070 50  0000 L CNN
F 1 "75ohms" H 7780 3010 50  0000 L CNN
F 2 "Resistors_SMD:R_0603" H 7750 3050 50  0001 C CNN
F 3 "" H 7750 3050 50  0000 C CNN
	1    7750 3050
	1    0    0    -1  
$EndComp
$Comp
L R_Small R90
U 1 1 5862263F
P 8650 3050
F 0 "R90" H 8680 3070 50  0000 L CNN
F 1 "75ohms" H 8680 3010 50  0000 L CNN
F 2 "Resistors_SMD:R_0603" H 8650 3050 50  0001 C CNN
F 3 "" H 8650 3050 50  0000 C CNN
	1    8650 3050
	1    0    0    -1  
$EndComp
$Comp
L R_Small R79
U 1 1 5862276D
P 5950 4050
F 0 "R79" H 5980 4070 50  0000 L CNN
F 1 "75ohms" H 5980 4010 50  0000 L CNN
F 2 "Resistors_SMD:R_0603" H 5950 4050 50  0001 C CNN
F 3 "" H 5950 4050 50  0000 C CNN
	1    5950 4050
	1    0    0    -1  
$EndComp
$Comp
L R_Small R83
U 1 1 58622773
P 6850 4050
F 0 "R83" H 6880 4070 50  0000 L CNN
F 1 "75ohms" H 6880 4010 50  0000 L CNN
F 2 "Resistors_SMD:R_0603" H 6850 4050 50  0001 C CNN
F 3 "" H 6850 4050 50  0000 C CNN
	1    6850 4050
	1    0    0    -1  
$EndComp
$Comp
L R_Small R87
U 1 1 58622779
P 7750 4050
F 0 "R87" H 7780 4070 50  0000 L CNN
F 1 "75ohms" H 7780 4010 50  0000 L CNN
F 2 "Resistors_SMD:R_0603" H 7750 4050 50  0001 C CNN
F 3 "" H 7750 4050 50  0000 C CNN
	1    7750 4050
	1    0    0    -1  
$EndComp
$Comp
L R_Small R91
U 1 1 5862277F
P 8650 4050
F 0 "R91" H 8680 4070 50  0000 L CNN
F 1 "75ohms" H 8680 4010 50  0000 L CNN
F 2 "Resistors_SMD:R_0603" H 8650 4050 50  0001 C CNN
F 3 "" H 8650 4050 50  0000 C CNN
	1    8650 4050
	1    0    0    -1  
$EndComp
$Comp
L R_Small R80
U 1 1 5862289D
P 5950 5050
F 0 "R80" H 5980 5070 50  0000 L CNN
F 1 "75ohms" H 5980 5010 50  0000 L CNN
F 2 "Resistors_SMD:R_0603" H 5950 5050 50  0001 C CNN
F 3 "" H 5950 5050 50  0000 C CNN
	1    5950 5050
	1    0    0    -1  
$EndComp
$Comp
L R_Small R84
U 1 1 586228A3
P 6850 5050
F 0 "R84" H 6880 5070 50  0000 L CNN
F 1 "75ohms" H 6880 5010 50  0000 L CNN
F 2 "Resistors_SMD:R_0603" H 6850 5050 50  0001 C CNN
F 3 "" H 6850 5050 50  0000 C CNN
	1    6850 5050
	1    0    0    -1  
$EndComp
$Comp
L R_Small R88
U 1 1 586228A9
P 7750 5050
F 0 "R88" H 7780 5070 50  0000 L CNN
F 1 "75ohms" H 7780 5010 50  0000 L CNN
F 2 "Resistors_SMD:R_0603" H 7750 5050 50  0001 C CNN
F 3 "" H 7750 5050 50  0000 C CNN
	1    7750 5050
	1    0    0    -1  
$EndComp
$Comp
L R_Small R92
U 1 1 586228AF
P 8650 5050
F 0 "R92" H 8680 5070 50  0000 L CNN
F 1 "75ohms" H 8680 5010 50  0000 L CNN
F 2 "Resistors_SMD:R_0603" H 8650 5050 50  0001 C CNN
F 3 "" H 8650 5050 50  0000 C CNN
	1    8650 5050
	1    0    0    -1  
$EndComp
Wire Wire Line
	5100 1200 5100 4600
Wire Wire Line
	5100 1500 8650 1500
Wire Wire Line
	8650 1500 8650 1650
Wire Wire Line
	7750 1650 7750 1500
Connection ~ 7750 1500
Wire Wire Line
	6850 1650 6850 1500
Connection ~ 6850 1500
Wire Wire Line
	5950 1650 5950 1500
Connection ~ 5950 1500
Wire Wire Line
	5950 1850 5950 1950
Wire Wire Line
	6850 1850 6850 1950
Wire Wire Line
	7750 1850 7750 1950
Wire Wire Line
	8650 1850 8650 1950
Text GLabel 2200 2300 1    60   Input ~ 0
+1.8V
Wire Wire Line
	2200 2300 2200 3200
Wire Wire Line
	1350 2950 3000 2950
Text GLabel 2850 3150 0    60   Input ~ 0
SDA_2
Text GLabel 2850 3250 0    60   Input ~ 0
SCL_2
$Comp
L R_Small R73
U 1 1 5862209B
P 1550 3250
F 0 "R73" V 1400 3200 50  0000 L CNN
F 1 "JMPR_5+" V 1450 3150 50  0000 L CNN
F 2 "Resistors_SMD:R_0603" H 1550 3250 50  0001 C CNN
F 3 "" H 1550 3250 50  0000 C CNN
	1    1550 3250
	0    1    1    0   
$EndComp
$Comp
L R_Small R74
U 1 1 586223C2
P 1550 3500
F 0 "R74" V 1400 3450 50  0000 L CNN
F 1 "JMPR_5-" V 1450 3400 50  0000 L CNN
F 2 "Resistors_SMD:R_0603" H 1550 3500 50  0001 C CNN
F 3 "" H 1550 3500 50  0000 C CNN
	1    1550 3500
	0    1    1    0   
$EndComp
$Comp
L R_Small R75
U 1 1 586227D4
P 1550 3750
F 0 "R75" V 1400 3700 50  0000 L CNN
F 1 "JMPR_6+" V 1450 3650 50  0000 L CNN
F 2 "Resistors_SMD:R_0603" H 1550 3750 50  0001 C CNN
F 3 "" H 1550 3750 50  0000 C CNN
	1    1550 3750
	0    1    1    0   
$EndComp
$Comp
L R_Small R76
U 1 1 586227DA
P 1550 4000
F 0 "R76" V 1400 3950 50  0000 L CNN
F 1 "JMPR_6-" V 1450 3900 50  0000 L CNN
F 2 "Resistors_SMD:R_0603" H 1550 4000 50  0001 C CNN
F 3 "" H 1550 4000 50  0000 C CNN
	1    1550 4000
	0    1    1    0   
$EndComp
Wire Wire Line
	1350 3250 1450 3250
Connection ~ 2200 2950
Connection ~ 1350 3250
Wire Wire Line
	1350 3750 1450 3750
Connection ~ 1350 3750
$Comp
L GND #PWR010
U 1 1 58623C3F
P 2200 4850
F 0 "#PWR010" H 2200 4600 50  0001 C CNN
F 1 "GND" H 2200 4700 50  0000 C CNN
F 2 "" H 2200 4850 50  0000 C CNN
F 3 "" H 2200 4850 50  0000 C CNN
	1    2200 4850
	1    0    0    -1  
$EndComp
Wire Wire Line
	2200 4150 3000 4150
Wire Wire Line
	2200 3400 2200 4850
Wire Wire Line
	1200 3500 1200 4650
Wire Wire Line
	1200 4650 2200 4650
Connection ~ 2200 4650
Wire Wire Line
	1450 3500 1200 3500
Wire Wire Line
	1450 4000 1200 4000
Connection ~ 1200 4000
Wire Wire Line
	1900 3650 3000 3650
Wire Wire Line
	1900 3250 1900 3650
Wire Wire Line
	1900 3500 1650 3500
Wire Wire Line
	1650 3250 1900 3250
Connection ~ 1900 3500
Wire Wire Line
	1650 3750 3000 3750
Wire Wire Line
	1650 4000 1900 4000
Wire Wire Line
	1900 4000 1900 3750
Connection ~ 1900 3750
Wire Wire Line
	5950 2150 5950 2200
Wire Wire Line
	5950 2200 4200 2200
Wire Wire Line
	4300 2300 6850 2300
Wire Wire Line
	6850 2300 6850 2150
Wire Wire Line
	7750 2150 7750 2400
Wire Wire Line
	7750 2400 4400 2400
Wire Wire Line
	8650 2150 8650 2500
Wire Wire Line
	8650 2500 4500 2500
Wire Wire Line
	5950 3200 5950 3150
Wire Wire Line
	4000 3200 5950 3200
Wire Wire Line
	6850 3300 6850 3150
Wire Wire Line
	4000 3300 6850 3300
Wire Wire Line
	7750 3150 7750 3400
Wire Wire Line
	8650 3150 8650 3500
Wire Wire Line
	5950 4200 5950 4150
Wire Wire Line
	6850 4150 6850 4300
Wire Wire Line
	7750 4400 7750 4150
Wire Wire Line
	8650 4150 8650 4500
Wire Wire Line
	4200 2200 4200 2800
Wire Wire Line
	4200 2800 4000 2800
Wire Wire Line
	4300 2300 4300 2900
Wire Wire Line
	4300 2900 4000 2900
Wire Wire Line
	4400 2400 4400 3000
Wire Wire Line
	4400 3000 4000 3000
Wire Wire Line
	4500 2500 4500 3100
Wire Wire Line
	4500 3100 4000 3100
Wire Wire Line
	7750 3400 4000 3400
Wire Wire Line
	8650 3500 4000 3500
Wire Wire Line
	5950 2850 5950 2950
Wire Wire Line
	6850 2850 6850 2950
Wire Wire Line
	7750 2850 7750 2950
Wire Wire Line
	8650 2850 8650 2950
Wire Wire Line
	8650 3850 8650 3950
Wire Wire Line
	7750 3850 7750 3950
Wire Wire Line
	6850 3850 6850 3950
Wire Wire Line
	5950 3850 5950 3950
Wire Wire Line
	5950 4850 5950 4950
Wire Wire Line
	6850 4850 6850 4950
Wire Wire Line
	7750 4850 7750 4950
Wire Wire Line
	8650 4850 8650 4950
Wire Wire Line
	5100 2600 8650 2600
Wire Wire Line
	5950 2600 5950 2650
Connection ~ 5100 1500
Wire Wire Line
	8650 2600 8650 2650
Connection ~ 5950 2600
Wire Wire Line
	6850 2600 6850 2650
Connection ~ 6850 2600
Wire Wire Line
	7750 2600 7750 2650
Connection ~ 7750 2600
Wire Wire Line
	8650 3600 8650 3650
Wire Wire Line
	5100 3600 8650 3600
Connection ~ 5100 2600
Wire Wire Line
	5950 3650 5950 3600
Connection ~ 5950 3600
Wire Wire Line
	6850 3650 6850 3600
Connection ~ 6850 3600
Wire Wire Line
	7750 3650 7750 3600
Connection ~ 7750 3600
Wire Wire Line
	8650 4600 8650 4650
Wire Wire Line
	5100 4600 8650 4600
Connection ~ 5100 3600
Wire Wire Line
	5950 4650 5950 4600
Connection ~ 5950 4600
Wire Wire Line
	6850 4650 6850 4600
Connection ~ 6850 4600
Wire Wire Line
	7750 4650 7750 4600
Connection ~ 7750 4600
Wire Wire Line
	8650 5150 8650 5500
Wire Wire Line
	8650 5500 4100 5500
Wire Wire Line
	4100 5500 4100 4300
Wire Wire Line
	4100 4300 4000 4300
Wire Wire Line
	4000 4200 4200 4200
Wire Wire Line
	4200 4200 4200 5400
Wire Wire Line
	4200 5400 7750 5400
Wire Wire Line
	7750 5400 7750 5150
Wire Wire Line
	6850 5150 6850 5300
Wire Wire Line
	6850 5300 4300 5300
Wire Wire Line
	4300 5300 4300 4100
Wire Wire Line
	4300 4100 4000 4100
Wire Wire Line
	4000 4000 4400 4000
Wire Wire Line
	4400 4000 4400 5200
Wire Wire Line
	4400 5200 5950 5200
Wire Wire Line
	5950 5200 5950 5150
Wire Wire Line
	8650 4500 4500 4500
Wire Wire Line
	4500 4500 4500 3900
Wire Wire Line
	4500 3900 4000 3900
Wire Wire Line
	7750 4400 4600 4400
Wire Wire Line
	4600 4400 4600 3800
Wire Wire Line
	4600 3800 4000 3800
Wire Wire Line
	4000 3700 4700 3700
Wire Wire Line
	4700 3700 4700 4300
Wire Wire Line
	4700 4300 6850 4300
Wire Wire Line
	5950 4200 4800 4200
Wire Wire Line
	4800 4200 4800 3600
Wire Wire Line
	4800 3600 4000 3600
$Comp
L C_Small C96
U 1 1 5862835A
P 2200 3300
F 0 "C96" H 2210 3370 50  0000 L CNN
F 1 "100nF" H 2210 3220 50  0000 L CNN
F 2 "Capacitors_SMD:C_0603" H 2200 3300 50  0001 C CNN
F 3 "" H 2200 3300 50  0000 C CNN
	1    2200 3300
	1    0    0    -1  
$EndComp
Connection ~ 2200 4150
Text Notes 6150 1750 0    60   ~ 0
Vf=3.2V
$Comp
L PCAL9555A U2
U 1 1 5862E57C
P 3500 3550
F 0 "U2" H 3500 2650 60  0000 C CNN
F 1 "PCAL9555A" H 3500 4450 60  0000 C CNN
F 2 "NXP:PCAL9555A_HWQFN24" H 3500 3550 60  0001 C CNN
F 3 "" H 3500 3550 60  0001 C CNN
	1    3500 3550
	1    0    0    -1  
$EndComp
Text Notes 3250 2550 0    60   ~ 0
*configure as\n open-drain outputs
Wire Wire Line
	3000 3150 2850 3150
Wire Wire Line
	2850 3250 3000 3250
Wire Wire Line
	1350 2950 1350 3750
Wire Wire Line
	3000 3850 2200 3850
Connection ~ 2200 3850
Text Notes 2350 3050 0    60   ~ 0
(+1.8V logic)
$EndSCHEMATC
