EESchema Schematic File Version 2
LIBS:KicadChessboard-rescue
LIBS:power
LIBS:device
LIBS:transistors
LIBS:conn
LIBS:linear
LIBS:regul
LIBS:74xx
LIBS:cmos4000
LIBS:adc-dac
LIBS:memory
LIBS:xilinx
LIBS:microcontrollers
LIBS:dsp
LIBS:microchip
LIBS:analog_switches
LIBS:motorola
LIBS:texas
LIBS:intel
LIBS:audio
LIBS:interface
LIBS:digital-audio
LIBS:philips
LIBS:display
LIBS:cypress
LIBS:siliconi
LIBS:opto
LIBS:atmel
LIBS:contrib
LIBS:valves
LIBS:DiodesInc
LIBS:Microchip
LIBS:myLib
LIBS:NXP
LIBS:KicadChessboard-cache
EELAYER 25 0
EELAYER END
$Descr A 11000 8500
encoding utf-8
Sheet 20 20
Title "MOSFET Control"
Date "2016-12-27"
Rev "3.0"
Comp ""
Comment1 "Switching network configuration for control of each NFC coil."
Comment2 ""
Comment3 ""
Comment4 ""
$EndDescr
Text GLabel 7000 1200 2    60   Output ~ 0
/COIL_EN_1
Text GLabel 7000 1500 2    60   Output ~ 0
/COIL_EN_2
Text GLabel 7000 1800 2    60   Output ~ 0
/COIL_EN_3
Text GLabel 7000 2100 2    60   Output ~ 0
/COIL_EN_4
Text GLabel 7000 2400 2    60   Output ~ 0
/COIL_EN_5
Text GLabel 7000 2700 2    60   Output ~ 0
/COIL_EN_6
Text GLabel 7000 3000 2    60   Output ~ 0
/COIL_EN_7
Text GLabel 7000 3300 2    60   Output ~ 0
/COIL_EN_8
Text GLabel 7000 3600 2    60   Output ~ 0
/COIL_EN_9
Text GLabel 7000 3900 2    60   Output ~ 0
/COIL_EN_10
Text GLabel 7000 4200 2    60   Output ~ 0
/COIL_EN_11
Text GLabel 7000 4500 2    60   Output ~ 0
/COIL_EN_12
Text GLabel 7000 4800 2    60   Output ~ 0
/COIL_EN_13
Text GLabel 7000 5100 2    60   Output ~ 0
/COIL_EN_14
Text GLabel 7000 5400 2    60   Output ~ 0
/COIL_EN_15
Text GLabel 7000 5700 2    60   Output ~ 0
/COIL_EN_16
$Comp
L PCAL9555A U3
U 1 1 586300E8
P 3750 3350
F 0 "U3" H 3750 2450 60  0000 C CNN
F 1 "PCAL9555A" H 3750 4250 60  0000 C CNN
F 2 "NXP:PCAL9555A_HWQFN24" H 3750 3350 60  0001 C CNN
F 3 "" H 3750 3350 60  0001 C CNN
	1    3750 3350
	1    0    0    -1  
$EndComp
Text Notes 3500 2350 0    60   ~ 0
*configure as\n push-pull output
$Comp
L R_Small R97
U 1 1 58630389
P 6450 1200
F 0 "R97" V 6300 1150 50  0000 L CNN
F 1 "220ohms" V 6350 1050 50  0000 L CNN
F 2 "Resistors_SMD:R_0603" H 6450 1200 50  0001 C CNN
F 3 "" H 6450 1200 50  0000 C CNN
	1    6450 1200
	0    1    1    0   
$EndComp
$Comp
L R_Small R98
U 1 1 58630446
P 6450 1500
F 0 "R98" V 6300 1450 50  0000 L CNN
F 1 "220ohms" V 6350 1350 50  0000 L CNN
F 2 "Resistors_SMD:R_0603" H 6450 1500 50  0001 C CNN
F 3 "" H 6450 1500 50  0000 C CNN
	1    6450 1500
	0    1    1    0   
$EndComp
$Comp
L R_Small R99
U 1 1 5863046D
P 6450 1800
F 0 "R99" V 6300 1750 50  0000 L CNN
F 1 "220ohms" V 6350 1650 50  0000 L CNN
F 2 "Resistors_SMD:R_0603" H 6450 1800 50  0001 C CNN
F 3 "" H 6450 1800 50  0000 C CNN
	1    6450 1800
	0    1    1    0   
$EndComp
$Comp
L R_Small R100
U 1 1 58630E20
P 6450 2100
F 0 "R100" V 6300 2050 50  0000 L CNN
F 1 "220ohms" V 6350 1950 50  0000 L CNN
F 2 "Resistors_SMD:R_0603" H 6450 2100 50  0001 C CNN
F 3 "" H 6450 2100 50  0000 C CNN
	1    6450 2100
	0    1    1    0   
$EndComp
$Comp
L R_Small R101
U 1 1 58630F41
P 6450 2400
F 0 "R101" V 6300 2350 50  0000 L CNN
F 1 "220ohms" V 6350 2250 50  0000 L CNN
F 2 "Resistors_SMD:R_0603" H 6450 2400 50  0001 C CNN
F 3 "" H 6450 2400 50  0000 C CNN
	1    6450 2400
	0    1    1    0   
$EndComp
$Comp
L R_Small R102
U 1 1 58630F47
P 6450 2700
F 0 "R102" V 6300 2650 50  0000 L CNN
F 1 "220ohms" V 6350 2550 50  0000 L CNN
F 2 "Resistors_SMD:R_0603" H 6450 2700 50  0001 C CNN
F 3 "" H 6450 2700 50  0000 C CNN
	1    6450 2700
	0    1    1    0   
$EndComp
$Comp
L R_Small R103
U 1 1 58630F4D
P 6450 3000
F 0 "R103" V 6300 2950 50  0000 L CNN
F 1 "220ohms" V 6350 2850 50  0000 L CNN
F 2 "Resistors_SMD:R_0603" H 6450 3000 50  0001 C CNN
F 3 "" H 6450 3000 50  0000 C CNN
	1    6450 3000
	0    1    1    0   
$EndComp
$Comp
L R_Small R104
U 1 1 58630F53
P 6450 3300
F 0 "R104" V 6300 3250 50  0000 L CNN
F 1 "220ohms" V 6350 3150 50  0000 L CNN
F 2 "Resistors_SMD:R_0603" H 6450 3300 50  0001 C CNN
F 3 "" H 6450 3300 50  0000 C CNN
	1    6450 3300
	0    1    1    0   
$EndComp
$Comp
L R_Small R105
U 1 1 586310CD
P 6450 3600
F 0 "R105" V 6300 3550 50  0000 L CNN
F 1 "220ohms" V 6350 3450 50  0000 L CNN
F 2 "Resistors_SMD:R_0603" H 6450 3600 50  0001 C CNN
F 3 "" H 6450 3600 50  0000 C CNN
	1    6450 3600
	0    1    1    0   
$EndComp
$Comp
L R_Small R106
U 1 1 586310D3
P 6450 3900
F 0 "R106" V 6300 3850 50  0000 L CNN
F 1 "220ohms" V 6350 3750 50  0000 L CNN
F 2 "Resistors_SMD:R_0603" H 6450 3900 50  0001 C CNN
F 3 "" H 6450 3900 50  0000 C CNN
	1    6450 3900
	0    1    1    0   
$EndComp
$Comp
L R_Small R107
U 1 1 586310D9
P 6450 4200
F 0 "R107" V 6300 4150 50  0000 L CNN
F 1 "220ohms" V 6350 4050 50  0000 L CNN
F 2 "Resistors_SMD:R_0603" H 6450 4200 50  0001 C CNN
F 3 "" H 6450 4200 50  0000 C CNN
	1    6450 4200
	0    1    1    0   
$EndComp
$Comp
L R_Small R108
U 1 1 586310DF
P 6450 4500
F 0 "R108" V 6300 4450 50  0000 L CNN
F 1 "220ohms" V 6350 4350 50  0000 L CNN
F 2 "Resistors_SMD:R_0603" H 6450 4500 50  0001 C CNN
F 3 "" H 6450 4500 50  0000 C CNN
	1    6450 4500
	0    1    1    0   
$EndComp
$Comp
L R_Small R109
U 1 1 586310E5
P 6450 4800
F 0 "R109" V 6300 4750 50  0000 L CNN
F 1 "220ohms" V 6350 4650 50  0000 L CNN
F 2 "Resistors_SMD:R_0603" H 6450 4800 50  0001 C CNN
F 3 "" H 6450 4800 50  0000 C CNN
	1    6450 4800
	0    1    1    0   
$EndComp
$Comp
L R_Small R110
U 1 1 586310EB
P 6450 5100
F 0 "R110" V 6300 5050 50  0000 L CNN
F 1 "220ohms" V 6350 4950 50  0000 L CNN
F 2 "Resistors_SMD:R_0603" H 6450 5100 50  0001 C CNN
F 3 "" H 6450 5100 50  0000 C CNN
	1    6450 5100
	0    1    1    0   
$EndComp
$Comp
L R_Small R111
U 1 1 586310F1
P 6450 5400
F 0 "R111" V 6300 5350 50  0000 L CNN
F 1 "220ohms" V 6350 5250 50  0000 L CNN
F 2 "Resistors_SMD:R_0603" H 6450 5400 50  0001 C CNN
F 3 "" H 6450 5400 50  0000 C CNN
	1    6450 5400
	0    1    1    0   
$EndComp
$Comp
L R_Small R112
U 1 1 586310F7
P 6450 5700
F 0 "R112" V 6300 5650 50  0000 L CNN
F 1 "220ohms" V 6350 5550 50  0000 L CNN
F 2 "Resistors_SMD:R_0603" H 6450 5700 50  0001 C CNN
F 3 "" H 6450 5700 50  0000 C CNN
	1    6450 5700
	0    1    1    0   
$EndComp
Wire Wire Line
	4250 2600 4500 2600
Wire Wire Line
	4500 2600 4500 1200
Wire Wire Line
	4500 1200 6350 1200
Wire Wire Line
	6350 1500 4600 1500
Wire Wire Line
	4600 1500 4600 2700
Wire Wire Line
	4600 2700 4250 2700
Wire Wire Line
	6350 1800 4700 1800
Wire Wire Line
	4700 1800 4700 2800
Wire Wire Line
	4700 2800 4250 2800
Wire Wire Line
	4250 2900 4800 2900
Wire Wire Line
	4800 2900 4800 2100
Wire Wire Line
	4800 2100 6350 2100
Wire Wire Line
	4250 3000 4900 3000
Wire Wire Line
	4900 3000 4900 2400
Wire Wire Line
	4900 2400 6350 2400
Wire Wire Line
	6350 2700 5000 2700
Wire Wire Line
	5000 2700 5000 3100
Wire Wire Line
	5000 3100 4250 3100
Wire Wire Line
	4250 3200 5100 3200
Wire Wire Line
	5100 3200 5100 3000
Wire Wire Line
	5100 3000 6350 3000
Wire Wire Line
	6350 3300 4250 3300
Wire Wire Line
	4250 3400 5100 3400
Wire Wire Line
	5100 3400 5100 3600
Wire Wire Line
	5100 3600 6350 3600
Wire Wire Line
	6350 3900 5000 3900
Wire Wire Line
	5000 3900 5000 3500
Wire Wire Line
	5000 3500 4250 3500
Wire Wire Line
	4250 3600 4900 3600
Wire Wire Line
	4900 3600 4900 4200
Wire Wire Line
	4900 4200 6350 4200
Wire Wire Line
	6350 4500 4800 4500
Wire Wire Line
	4800 4500 4800 3700
Wire Wire Line
	4800 3700 4250 3700
Wire Wire Line
	4250 3800 4700 3800
Wire Wire Line
	4700 3800 4700 4800
Wire Wire Line
	4700 4800 6350 4800
Wire Wire Line
	6350 5100 4600 5100
Wire Wire Line
	4600 5100 4600 3900
Wire Wire Line
	4600 3900 4250 3900
Wire Wire Line
	4250 4000 4500 4000
Wire Wire Line
	4500 4000 4500 5400
Wire Wire Line
	4500 5400 6350 5400
Wire Wire Line
	6350 5700 4400 5700
Wire Wire Line
	4400 5700 4400 4100
Wire Wire Line
	4400 4100 4250 4100
Wire Wire Line
	6550 1200 7000 1200
Wire Wire Line
	6550 1500 7000 1500
Wire Wire Line
	6550 1800 7000 1800
Wire Wire Line
	6550 2100 7000 2100
Wire Wire Line
	6550 2400 7000 2400
Wire Wire Line
	6550 2700 7000 2700
Wire Wire Line
	7000 3000 6550 3000
Wire Wire Line
	6550 3300 7000 3300
Wire Wire Line
	6550 3600 7000 3600
Wire Wire Line
	6550 3900 7000 3900
Wire Wire Line
	6550 4200 7000 4200
Wire Wire Line
	7000 4500 6550 4500
Wire Wire Line
	6550 4800 7000 4800
Wire Wire Line
	7000 5100 6550 5100
Wire Wire Line
	6550 5400 7000 5400
Wire Wire Line
	7000 5700 6550 5700
Text GLabel 2900 2100 1    60   Input ~ 0
+1.8V
Wire Wire Line
	2900 2100 2900 3700
Wire Wire Line
	1300 2750 3250 2750
$Comp
L C_Small C97
U 1 1 58634217
P 2900 3800
F 0 "C97" H 2700 3850 50  0000 L CNN
F 1 "100nF" H 2600 3750 50  0000 L CNN
F 2 "Capacitors_SMD:C_0603" H 2900 3800 50  0001 C CNN
F 3 "" H 2900 3800 50  0000 C CNN
	1    2900 3800
	1    0    0    -1  
$EndComp
$Comp
L GND #PWR011
U 1 1 586342A6
P 2900 4700
F 0 "#PWR011" H 2900 4450 50  0001 C CNN
F 1 "GND" H 2900 4550 50  0000 C CNN
F 2 "" H 2900 4700 50  0000 C CNN
F 3 "" H 2900 4700 50  0000 C CNN
	1    2900 4700
	1    0    0    -1  
$EndComp
$Comp
L R_Small R93
U 1 1 586343E4
P 1600 3450
F 0 "R93" V 1400 3400 50  0000 L CNN
F 1 "JMPR_3+" V 1500 3300 50  0000 L CNN
F 2 "Resistors_SMD:R_0603" H 1600 3450 50  0001 C CNN
F 3 "" H 1600 3450 50  0000 C CNN
	1    1600 3450
	0    1    1    0   
$EndComp
$Comp
L R_Small R94
U 1 1 5863446D
P 1600 3750
F 0 "R94" V 1400 3700 50  0000 L CNN
F 1 "JMPR_3-" V 1500 3600 50  0000 L CNN
F 2 "Resistors_SMD:R_0603" H 1600 3750 50  0001 C CNN
F 3 "" H 1600 3750 50  0000 C CNN
	1    1600 3750
	0    1    1    0   
$EndComp
$Comp
L R_Small R95
U 1 1 586344C4
P 1600 4050
F 0 "R95" V 1400 4000 50  0000 L CNN
F 1 "JMPR_4+" V 1500 3900 50  0000 L CNN
F 2 "Resistors_SMD:R_0603" H 1600 4050 50  0001 C CNN
F 3 "" H 1600 4050 50  0000 C CNN
	1    1600 4050
	0    1    1    0   
$EndComp
$Comp
L R_Small R96
U 1 1 58634555
P 1600 4350
F 0 "R96" V 1400 4300 50  0000 L CNN
F 1 "JMPR_4-" V 1500 4200 50  0000 L CNN
F 2 "Resistors_SMD:R_0603" H 1600 4350 50  0001 C CNN
F 3 "" H 1600 4350 50  0000 C CNN
	1    1600 4350
	0    1    1    0   
$EndComp
Wire Wire Line
	2900 3650 3250 3650
Connection ~ 2900 2750
Wire Wire Line
	3250 3550 2300 3550
Wire Wire Line
	2300 3550 2300 4050
Wire Wire Line
	2300 4050 1700 4050
Wire Wire Line
	1700 4350 1800 4350
Wire Wire Line
	1800 4350 1800 4050
Connection ~ 1800 4050
Wire Wire Line
	1700 3750 1800 3750
Wire Wire Line
	1800 3750 1800 3450
Wire Wire Line
	1700 3450 3250 3450
Connection ~ 1800 3450
Wire Wire Line
	1500 4350 1400 4350
Wire Wire Line
	1400 3750 1400 4450
Wire Wire Line
	1400 3750 1500 3750
Wire Wire Line
	1300 4050 1500 4050
Wire Wire Line
	1300 2750 1300 4050
Wire Wire Line
	1300 3450 1500 3450
Connection ~ 1300 3450
Connection ~ 2900 3650
Wire Wire Line
	3250 3950 2900 3950
Wire Wire Line
	2900 3900 2900 4700
Connection ~ 2900 3950
Wire Wire Line
	1400 4450 2900 4450
Connection ~ 2900 4450
Connection ~ 1400 4350
Text GLabel 2550 2950 0    60   Input ~ 0
SDA_2
Text GLabel 2550 3050 0    60   Input ~ 0
SCL_2
Wire Wire Line
	3250 2950 2550 2950
Wire Wire Line
	2550 3050 3250 3050
Text Notes 2000 2850 0    60   ~ 0
(+1.8V logic)
$EndSCHEMATC
